{
  "@odata.context": "https://jdaretailmatedevret.cloudax.dynamics.com/Commerce/$metadata#Collection(Microsoft.Dynamics.Commerce.Runtime.DataModel.ProductSearchResult)",
  "value": [
  
	{
      "ItemId": "84025",
      "Name": "Reversible Jacket",
      "Price": 39.95,
      "PrimaryImageUrl": "reversible_jacke",
      "RecordId": 301814922,
      "ExtensionProperties": []
    },
    {
      "ItemId": "84029",
      "Name": "tulle skirt",
      "Price": 14.99,
      "PrimaryImageUrl": "skirt",
      "RecordId": 301814929,
      "ExtensionProperties": []
    }
  ]
}