{

  "ContentEncoding": null,
  "ContentType": null,
  "Data": {
    "success": true,
    "message": "Wishlist fetched Successfully",
    "wishlistdata": {
      "Id": 68719476736,
      "Name": "Customer Wish list",
      "CustomerId": "004021",
      "CustomerName": "Carl Sagan",
      "IsFavorite": false,
      "IsRecurring": false,
      "IsPrivate": false,
      "IsCollaborative": false,
      "CreatedDateTime": "0001-01-01T00:00:00+00:00",
      "DueDateTime": "0001-01-01T00:00:00+00:00",
      "CommerceListTypeValue": 1,
      "CommerceListLines": [
        {
          "CommerceListId": 68719476736,
          "LineId": 68719478242,
          "CustomerId": "004021",
          "CustomerName": "Carl Sagan",
          "ProductId": 301649179,
          "Quantity": 1,
          "UnitOfMeasure": "",
          "IsFavorite": false,
          "IsRecurring": false,
          "IsPrivate": false,
          "CreatedDateTime": "2017-01-03T08:39:28+00:00",
          "ExtensionProperties": []
        },
        {
          "CommerceListId": 68719476736,
          "LineId": 68719478241,
          "CustomerId": "004021",
          "CustomerName": "Carl Sagan",
          "ProductId": 301814922,
          "Quantity": 1,
          "UnitOfMeasure": "",
          "IsFavorite": false,
          "IsRecurring": false,
          "IsPrivate": false,
          "CreatedDateTime": "2017-01-03T08:16:38+00:00",
          "ExtensionProperties": []
        },
        {
          "CommerceListId": 68719476736,
          "LineId": 68719478240,
          "CustomerId": "004021",
          "CustomerName": "Carl Sagan",
          "ProductId": 204988847,
          "Quantity": 1,
          "UnitOfMeasure": "",
          "IsFavorite": false,
          "IsRecurring": false,
          "IsPrivate": false,
          "CreatedDateTime": "2016-12-30T11:14:40+00:00",
          "ExtensionProperties": []
        },
        {
          "CommerceListId": 68719476736,
          "LineId": 68719478239,
          "CustomerId": "004021",
          "CustomerName": "Carl Sagan",
          "ProductId": 205076435,
          "Quantity": 1,
          "UnitOfMeasure": "",
          "IsFavorite": false,
          "IsRecurring": false,
          "IsPrivate": false,
          "CreatedDateTime": "2016-12-28T10:30:19+00:00",
          "ExtensionProperties": []
        }
      ],
      "CommerceListContributors": [],
      "CommerceListInvitations": [],
      "ExtensionProperties": []
    }
  },
  "JsonRequestBehavior": 1,
  "MaxJsonLength": null,
  "RecursionLimit": null
}